<svg xmlns="http://www.w3.org/2000/svg" width="57" height="43.771" viewBox="0 0 57 43.771">
  <defs>
    <style>
      .cls-1 {
        fill: #f16051;
      }

      .cls-2 {
        fill: #2ea2db;
      }

      .cls-3 {
        fill: #fdbf5e;
      }

      .cls-4 {
        fill: #dedde0;
      }
    </style>
  </defs>
  <g id="surface1" transform="translate(57 -0.475) rotate(90)">
    <path id="Path_119" data-name="Path 119" d="M152.878,12.6,154.1,9.75H136.973L138.2,12.6Zm0,0" transform="translate(-123.177 -8.798)"/>
    <path id="Path_120" data-name="Path 120" class="cls-1" d="M99.173,11.65v51.3a1.907,1.907,0,0,1-1.9,1.9H70.626a1.907,1.907,0,0,1-1.9-1.9V11.65a1.907,1.907,0,0,1,1.9-1.9h4.758l1.228,2.85H91.284l1.227-2.85h4.758A1.907,1.907,0,0,1,99.173,11.65Zm0,0" transform="translate(-61.587 -8.798)"/>
    <path id="Path_121" data-name="Path 121" class="cls-2" d="M99.173,224.25V256.6a1.909,1.909,0,0,1-1.9,1.9H70.626a1.909,1.909,0,0,1-1.9-1.9v-7.612" transform="translate(-61.587 -202.458)"/>
    <path id="Path_122" data-name="Path 122" class="cls-3" d="M14.98,98.887H10.223a20.748,20.748,0,0,0,2.807,10.444l4.118-2.374-4.118,2.374a21,21,0,0,0,7.66,7.643l2.379-4.109-2.379,4.109a20.959,20.959,0,0,0,20.934,0l-2.379-4.109,2.379,4.109a21,21,0,0,0,7.66-7.643l-4.118-2.374,4.118,2.374a20.832,20.832,0,0,0,0-20.888l-4.118,2.374,4.118-2.374a21,21,0,0,0-7.66-7.643L39.245,84.91,41.624,80.8a20.959,20.959,0,0,0-20.934,0l2.379,4.109L20.69,80.8a21,21,0,0,0-7.66,7.643l4.118,2.374L13.03,88.444a20.744,20.744,0,0,0-2.807,10.444Zm16.177,5.7a5.7,5.7,0,0,1-5.385-7.6,5.708,5.708,0,0,0,10.333,4.747A5.712,5.712,0,0,1,31.157,104.584Zm0-11.393a5.712,5.712,0,0,1,4.948,2.848,5.725,5.725,0,0,0-6.852-2.525A5.719,5.719,0,0,1,31.157,93.191Zm0,5.7-9.516-9.494Zm0,0" transform="translate(-8.797 -70.387)"/>
    <path id="Path_123" data-name="Path 123" class="cls-4" d="M177.642,239.709A5.709,5.709,0,1,1,171.932,234,5.709,5.709,0,0,1,177.642,239.709Zm0,0" transform="translate(-149.572 -211.209)"/>
    <path id="Path_124" data-name="Path 124" d="M90.374,468a.952.952,0,0,0-.952.952v7.612a.952.952,0,0,1-.952.952H61.827a.952.952,0,0,1-.952-.952v-7.612a.952.952,0,0,0-1.9,0v7.612a2.855,2.855,0,0,0,2.855,2.855H88.471a2.854,2.854,0,0,0,2.855-2.855v-7.612A.951.951,0,0,0,90.374,468Zm0,0" transform="translate(-52.789 -422.419)"/>
    <path id="Path_125" data-name="Path 125" d="M59.924,11.419a.952.952,0,0,0,.952-.952V2.855a.952.952,0,0,1,.952-.952h4.131l.976,2.278a.951.951,0,0,0,.875.577H82.49a.951.951,0,0,0,.875-.577L84.34,1.9h4.131a.952.952,0,0,1,.952.952v7.612a.952.952,0,1,0,1.9,0V2.855A2.854,2.854,0,0,0,88.471,0H61.827a2.855,2.855,0,0,0-2.855,2.855v7.612A.952.952,0,0,0,59.924,11.419ZM82.27,1.9l-.407.952H68.436L68.029,1.9Zm0,0" transform="translate(-52.789)"/>
    <path id="Path_126" data-name="Path 126" d="M145.3,538.153a.952.952,0,1,0,0-1.9H128.175a.952.952,0,1,0,0,1.9Zm0,0" transform="translate(-114.378 -484.008)"/>
    <path id="Path_127" data-name="Path 127" d="M41.332,100.959a21.72,21.72,0,0,0,0-21.736.429.429,0,0,0-.017-.052c-.01-.016-.026-.025-.036-.041a22.019,22.019,0,0,0-7.934-7.917c-.015-.01-.025-.027-.041-.036a.5.5,0,0,0-.052-.017,21.843,21.843,0,0,0-21.781,0,.493.493,0,0,0-.053.017c-.016.01-.026.026-.041.036a22.013,22.013,0,0,0-7.934,7.917c-.01.015-.026.025-.036.041a.439.439,0,0,0-.017.052,21.718,21.718,0,0,0,0,21.736c.008.016.008.035.017.051a.763.763,0,0,0,.048.063,22.017,22.017,0,0,0,7.922,7.9c.016.01.025.027.041.036a.768.768,0,0,0,.076.032,21.85,21.85,0,0,0,21.734,0A.68.68,0,0,0,33.3,109c.016-.009.025-.026.041-.036a22.017,22.017,0,0,0,7.922-7.9c.017-.02.033-.041.048-.063S41.323,100.975,41.332,100.959Zm-8.177,5.887-1.881-3.25a.951.951,0,0,0-1.655.939l.006.011,1.882,3.253a19.837,19.837,0,0,1-8.195,2.184v-3.75a.952.952,0,0,0-1.9,0v3.75a19.834,19.834,0,0,1-8.195-2.184l1.882-3.253a.951.951,0,0,0-1.642-.96l-.006.011-1.881,3.25a20.113,20.113,0,0,1-5.995-5.982l3.257-1.877a.95.95,0,1,0-.941-1.651l-.011.006-3.26,1.878a19.724,19.724,0,0,1-2.192-8.18H6.184a.95.95,0,1,0,0-1.9H2.426a19.724,19.724,0,0,1,2.189-8.178l3.26,1.878A.95.95,0,1,0,8.838,81.2L8.826,81.2,5.569,79.32a20.093,20.093,0,0,1,5.995-5.982l1.881,3.25A.951.951,0,0,0,15.1,75.65l-.006-.011-1.882-3.253a19.839,19.839,0,0,1,8.2-2.187v3.75a.952.952,0,0,0,1.9,0V70.2a19.836,19.836,0,0,1,8.195,2.184l-1.882,3.253a.951.951,0,0,0,1.642.961l.006-.011,1.881-3.25a20.09,20.09,0,0,1,5.995,5.982l-3.257,1.877a.95.95,0,1,0,.941,1.651l.011-.006,3.26-1.878a19.731,19.731,0,0,1,2.191,8.18H38.537a.95.95,0,1,0,0,1.9h3.758a19.725,19.725,0,0,1-2.189,8.178l-3.26-1.878a.95.95,0,1,0-.963,1.638l.011.006,3.257,1.877A20.113,20.113,0,0,1,33.154,106.846Zm0,0" transform="translate(0 -61.591)"/>
    <path id="Path_128" data-name="Path 128" d="M137.567,194.874h-9.121l-9.237-9.237a.952.952,0,0,0-1.345,1.346l9.516,9.515a.951.951,0,0,0,.673.279h9.516a.952.952,0,1,0,0-1.9Zm0,0" transform="translate(-105.691 -167.316)"/>
    <path id="Path_129" data-name="Path 129" d="M168.554,268.231a.951.951,0,0,0-1.3.346,4.758,4.758,0,0,1-8.61-3.963.952.952,0,0,0-1.794-.636A6.661,6.661,0,0,0,168.9,269.53.952.952,0,0,0,168.554,268.231Zm0,0" transform="translate(-140.77 -237.704)"/>
    <path id="Path_130" data-name="Path 130" d="M196.722,226.42a4.766,4.766,0,0,1,5.709,2.109.952.952,0,0,0,1.687-.882c-.013-.024-.026-.047-.04-.069a6.669,6.669,0,0,0-7.993-2.95.952.952,0,0,0,.636,1.794Zm0,0" transform="translate(-175.947 -202.4)"/>
  </g>
</svg>
