<svg xmlns="http://www.w3.org/2000/svg" width="69.385" height="57.521" viewBox="0 0 69.385 57.521">
  <defs>
    <style>
      .cls-1 {
        fill: #5a6b96;
      }

      .cls-2 {
        fill: #44c973;
      }

      .cls-3 {
        fill: #fbc8ad;
      }

      .cls-4 {
        fill: #45ccff;
      }

      .cls-5 {
        fill: #efefef;
      }

      .cls-6 {
        fill: #fbc640;
      }

      .cls-7 {
        fill: #ff4f4f;
      }
    </style>
  </defs>
  <g id="car" transform="translate(0 -43.773)">
    <path id="Path_140" data-name="Path 140" class="cls-1" d="M11.944,153.963a3.911,3.911,0,1,1,0-7.823h6.785l-2.958,7.823H11.944Z" transform="translate(-6.943 -88.495)"/>
    <path id="Path_141" data-name="Path 141" class="cls-2" d="M133.963,161.01v-.272a6.446,6.446,0,1,1,12.892,0v.272Z" transform="translate(-115.809 -95.543)"/>
    <g id="Group_1777" data-name="Group 1777" transform="translate(21.034 52.161)">
      <path id="Path_142" data-name="Path 142" class="cls-3" d="M158.782,112.805a3.567,3.567,0,1,1,3.567-3.566A3.57,3.57,0,0,1,158.782,112.805Z" transform="translate(-155.216 -105.672)"/>
      <path id="Path_143" data-name="Path 143" class="cls-3" d="M307.724,112.805a3.567,3.567,0,1,1,3.567-3.566A3.57,3.57,0,0,1,307.724,112.805Z" transform="translate(-283.974 -105.672)"/>
    </g>
    <path id="Path_144" data-name="Path 144" class="cls-4" d="M282.9,161.01v-.272a6.446,6.446,0,0,1,12.892,0v.272Z" transform="translate(-244.566 -95.543)"/>
    <path id="Path_145" data-name="Path 145" class="cls-5" d="M103.293,72.409v-.272a5.9,5.9,0,1,0-11.8,0v.272H83.108v-.272a5.9,5.9,0,1,0-11.8,0v.272H60.853l2.892-7.647,3.59-9.491a5.4,5.4,0,0,1,5.02-3.47h29.887a5.4,5.4,0,0,1,5.02,3.47l3.59,9.491,2.892,7.647Zm-5.9-12.763a3.022,3.022,0,1,0,3.023,3.023A3.026,3.026,0,0,0,97.391,59.647Zm-20.184,0A3.022,3.022,0,1,0,80.23,62.67,3.026,3.026,0,0,0,77.207,59.647Z" transform="translate(-52.606 -6.942)"/>
    <path id="Path_146" data-name="Path 146" class="cls-1" d="M427.984,153.964l-2.958-7.823h6.786a3.911,3.911,0,0,1,0,7.823h-3.827Z" transform="translate(-367.428 -88.496)"/>
    <g id="Group_1778" data-name="Group 1778" transform="translate(9.532 73.715)">
      <path id="Path_147" data-name="Path 147" class="cls-6" d="M379.11,273.819a4.547,4.547,0,1,1,4.547-4.547A4.552,4.552,0,0,1,379.11,273.819Z" transform="translate(-333.335 -264.724)"/>
      <path id="Path_148" data-name="Path 148" class="cls-6" d="M74.882,273.819a4.547,4.547,0,1,1,4.547-4.547A4.552,4.552,0,0,1,74.882,273.819Z" transform="translate(-70.335 -264.724)"/>
    </g>
    <path id="Path_149" data-name="Path 149" class="cls-7" d="M15.718,226.528a7.7,7.7,0,0,1-7.687-7.685V207.537a7.7,7.7,0,0,1,7.687-7.687H67.552a7.7,7.7,0,0,1,7.687,7.687v11.306a7.7,7.7,0,0,1-7.687,7.685Zm46.531-17.342a4,4,0,1,0,4,4A4.008,4.008,0,0,0,62.249,209.186Zm-41.228,0a4,4,0,1,0,4,4A4.008,4.008,0,0,0,21.021,209.186Z" transform="translate(-6.943 -134.927)"/>
    <g id="Group_1779" data-name="Group 1779" transform="translate(9.532 91.057)">
      <path id="Path_150" data-name="Path 150" class="cls-1" d="M72.415,401.842a2.083,2.083,0,0,1-2.08-2.08v-7.068h9.093v7.068a2.083,2.083,0,0,1-2.08,2.08Z" transform="translate(-70.335 -392.694)"/>
      <path id="Path_151" data-name="Path 151" class="cls-1" d="M376.643,401.842a2.083,2.083,0,0,1-2.08-2.08v-7.068h9.094v7.068a2.083,2.083,0,0,1-2.08,2.08Z" transform="translate(-333.335 -392.694)"/>
    </g>
    <path id="Path_152" data-name="Path 152" d="M67.939,256.693a5.636,5.636,0,1,0,5.635,5.636A5.642,5.642,0,0,0,67.939,256.693Zm0,8.551a2.915,2.915,0,1,1,2.914-2.914A2.918,2.918,0,0,1,67.939,265.244Z" transform="translate(-53.861 -184.066)"/>
    <path id="Path_153" data-name="Path 153" d="M372.167,256.693a5.636,5.636,0,1,0,5.635,5.636A5.642,5.642,0,0,0,372.167,256.693Zm0,8.551a2.915,2.915,0,1,1,2.914-2.914A2.918,2.918,0,0,1,372.167,265.244Z" transform="translate(-316.861 -184.066)"/>
    <path id="Path_154" data-name="Path 154" d="M186.639,270.065H164.076a1.36,1.36,0,1,0,0,2.721h22.562a1.36,1.36,0,1,0,0-2.721Z" transform="translate(-140.665 -195.626)"/>
    <path id="Path_155" data-name="Path 155" d="M202.965,306.417H186.473a1.36,1.36,0,1,0,0,2.721h16.492a1.36,1.36,0,0,0,0-2.721Z" transform="translate(-160.027 -227.052)"/>
    <path id="Path_156" data-name="Path 156" d="M69.385,61.556a5.006,5.006,0,0,0-5-5H58.931l-3.257-8.611a6.489,6.489,0,0,0-6.038-4.173H19.749a6.489,6.489,0,0,0-6.038,4.173l-3.257,8.612H5a5,5,0,0,0-2.1,9.538A8.754,8.754,0,0,0,0,72.61V83.916a8.784,8.784,0,0,0,8.443,8.765v5.444a3.172,3.172,0,0,0,3.169,3.169h4.933a3.172,3.172,0,0,0,3.169-3.169V92.69H49.671v5.435a3.172,3.172,0,0,0,3.169,3.169h4.933a3.172,3.172,0,0,0,3.169-3.169V92.681a8.784,8.784,0,0,0,8.443-8.765V72.61a8.755,8.755,0,0,0-2.9-6.514,5.014,5.014,0,0,0,2.9-4.54ZM16.256,48.907a3.754,3.754,0,0,1,3.493-2.415H49.636a3.754,3.754,0,0,1,3.493,2.415l5.646,14.927H52.194a7.555,7.555,0,0,0-3.757-5.226,4.655,4.655,0,1,0-7.3,0,7.554,7.554,0,0,0-3.757,5.227H32.009a7.555,7.555,0,0,0-3.757-5.226,4.655,4.655,0,1,0-7.3,0,7.555,7.555,0,0,0-3.757,5.227H10.61Zm26.6,6.82a1.934,1.934,0,1,1,1.933,1.933A1.936,1.936,0,0,1,42.851,55.728Zm1.933,4.654A4.821,4.821,0,0,1,49.4,63.835H40.168A4.821,4.821,0,0,1,44.785,60.382ZM22.667,55.728A1.934,1.934,0,1,1,24.6,57.661,1.936,1.936,0,0,1,22.667,55.728ZM24.6,60.382a4.821,4.821,0,0,1,4.616,3.453H19.984A4.821,4.821,0,0,1,24.6,60.382ZM3.389,59.944A2.264,2.264,0,0,1,5,59.277H9.424L7.7,63.835H5a2.279,2.279,0,0,1-1.612-3.891Zm13.6,38.181a.448.448,0,0,1-.448.448H11.612a.448.448,0,0,1-.448-.448V92.69h5.828Zm41.228,0a.448.448,0,0,1-.448.448H52.84a.448.448,0,0,1-.448-.448V92.69h5.828v5.435Zm8.443-14.209a6.06,6.06,0,0,1-6.054,6.053H8.775a6.06,6.06,0,0,1-6.054-6.053V72.61a6.061,6.061,0,0,1,6.054-6.054H60.61a6.061,6.061,0,0,1,6.054,6.054Zm-.669-20.748a2.261,2.261,0,0,1-1.611.667h-2.7L59.96,59.277h4.423a2.278,2.278,0,0,1,1.611,3.89Z" transform="translate(0 0)"/>
    <path id="Path_157" data-name="Path 157" d="M264,74h7.619a1.36,1.36,0,0,0,0-2.721H264A1.36,1.36,0,0,0,264,74Z" transform="translate(-227.044 -23.779)"/>
    <path id="Path_158" data-name="Path 158" d="M352.637,74a1.361,1.361,0,0,0,0-2.721A1.361,1.361,0,0,0,352.637,74Z" transform="translate(-303.713 -23.779)"/>
  </g>
</svg>
